isim-MasterJSurfacePro3.log
ISim log file
Running: D:\Onedrive\Fall 2017\CECS 440\Labs\Lab 3\Lab3_Integer DataPath_1\TB_Integer_DataPath_isim_beh.exe -intstyle ise -gui -tclbatch isim.cmd -wdb D:/Onedrive/Fall 2017/CECS 440/Labs/Lab 3/Lab3_Integer DataPath_1/TB_Integer_DataPath_isim_beh.wdb 
ISim P.20131013 (signature 0x7708f090)
WARNING: A WEBPACK license was found.
WARNING: Please use Xilinx License Configuration Manager to check out a full ISim license.
WARNING: ISim will run in Lite mode. Please refer to the ISim documentation for more information on the differences between the Lite and the Full version.
This is a Lite version of ISim.
Time resolution is 1 ps
# onerror resume
# wave add /
# run 1000 ns
Simulator is doing circuit initialization process.
Finished circuit initialization process.
 
 
**********************************************************
************** CECS 440: Integer_DataPath Test ****************
**********************************************************
 
 
***** CONTENTS AT INITIALIZATION *****
t=  106.0ns: $r0 @Loc S_Addr=00 <- S=00000000
t=  116.0ns: $r1 @Loc S_Addr=01 <- S=12345678
t=  126.0ns: $r2 @Loc S_Addr=02 <- S=89abcdef
t=  136.0ns: $r3 @Loc S_Addr=03 <- S=a5a5a5a5
t=  146.0ns: $r4 @Loc S_Addr=04 <- S=5a5a5a5a
t=  156.0ns: $r5 @Loc S_Addr=05 <- S=2468ace0
t=  166.0ns: $r6 @Loc S_Addr=06 <- S=13579bdf
t=  176.0ns: $r7 @Loc S_Addr=07 <- S=0f0f0f0f
t=  186.0ns: $r8 @Loc S_Addr=08 <- S=f0f0f0f0
t=  196.0ns: $r9 @Loc S_Addr=09 <- S=00000009
t=  206.0ns: $r10 @Loc S_Addr=0a <- S=0000000a
t=  216.0ns: $r11 @Loc S_Addr=0b <- S=0000000b
t=  226.0ns: $r12 @Loc S_Addr=0c <- S=0000000c
t=  236.0ns: $r13 @Loc S_Addr=0d <- S=0000000d
t=  246.0ns: $r14 @Loc S_Addr=0e <- S=fffffff8
t=  256.0ns: $r15 @Loc S_Addr=0f <- S=000075cc
New Value of $r1 @Loc=01 <- Value=ffffffff
t=  276.0ns: $r0 @Loc S_Addr=00 <- S=00000000
t=  286.0ns: $r1 @Loc S_Addr=01 <- S=00000000
t=  296.0ns: $r2 @Loc S_Addr=02 <- S=89abcdef
t=  306.0ns: $r3 @Loc S_Addr=03 <- S=a5a5a5a5
t=  316.0ns: $r4 @Loc S_Addr=04 <- S=5a5a5a5a
t=  326.0ns: $r5 @Loc S_Addr=05 <- S=2468ace0
t=  336.0ns: $r6 @Loc S_Addr=06 <- S=13579bdf
t=  346.0ns: $r7 @Loc S_Addr=07 <- S=0f0f0f0f
t=  356.0ns: $r8 @Loc S_Addr=08 <- S=f0f0f0f0
t=  366.0ns: $r9 @Loc S_Addr=09 <- S=00000009
t=  376.0ns: $r10 @Loc S_Addr=0a <- S=0000000a
t=  386.0ns: $r11 @Loc S_Addr=0b <- S=0000000b
t=  396.0ns: $r12 @Loc S_Addr=0c <- S=0000000c
t=  406.0ns: $r13 @Loc S_Addr=0d <- S=0000000d
t=  416.0ns: $r14 @Loc S_Addr=0e <- S=fffffff8
t=  426.0ns: $r15 @Loc S_Addr=0f <- S=000075cc
Stopped at time : 426 ns : File "D:/Onedrive/Fall 2017/CECS 440/Labs/Lab 3/Lab3_Integer DataPath_1/TB_Integer_DataPath.v" Line 137
