isim.log
ISim log file
Running: C:\Users\ashis\Dropbox\Computer Engineering CSULB\CECS440\LAB 5 Ashish & J\Lab4_Integer DataPath_2\Instruction_Unit_TB_isim_beh.exe -intstyle ise -gui -tclbatch isim.cmd -wdb C:/Users/ashis/Dropbox/Computer Engineering CSULB/CECS440/LAB 5 Ashish & J/Lab4_Integer DataPath_2/Instruction_Unit_TB_isim_beh.wdb 
ISim P.20131013 (signature 0x7708f090)
WARNING: A WEBPACK license was found.
WARNING: Please use Xilinx License Configuration Manager to check out a full ISim license.
WARNING: ISim will run in Lite mode. Please refer to the ISim documentation for more information on the differences between the Lite and the Full version.
This is a Lite version of ISim.
Time resolution is 1 ps
# onerror resume
# wave add /
# run 1000 ns
Simulator is doing circuit initialization process.
Finished circuit initialization process.
 
 
***************************************************************
              C E C S    4 4 0    L A B 5                      
***************************************************************
 
 
***************************************************************
      I N I T I A L    R E G I S T E R    V A L U E S          
***************************************************************
t= 126.0 ns: $r0 @Loc S_Addr=00 <- S=00000000
t= 136.0 ns: $r1 @Loc S_Addr=01 <- S=12345678
t= 146.0 ns: $r2 @Loc S_Addr=02 <- S=89abcdef
t= 156.0 ns: $r3 @Loc S_Addr=03 <- S=a5a5a5a5
t= 166.0 ns: $r4 @Loc S_Addr=04 <- S=5a5a5a5a
t= 176.0 ns: $r5 @Loc S_Addr=05 <- S=2468ace0
t= 186.0 ns: $r6 @Loc S_Addr=06 <- S=13579bdf
t= 196.0 ns: $r7 @Loc S_Addr=07 <- S=0f0f0f0f
t= 206.0 ns: $r8 @Loc S_Addr=08 <- S=f0f0f0f0
t= 216.0 ns: $r9 @Loc S_Addr=09 <- S=00000009
t= 226.0 ns: $r10 @Loc S_Addr=0a <- S=0000000a
t= 236.0 ns: $r11 @Loc S_Addr=0b <- S=0000000b
t= 246.0 ns: $r12 @Loc S_Addr=0c <- S=0000000c
t= 256.0 ns: $r13 @Loc S_Addr=0d <- S=0000000d
t= 266.0 ns: $r14 @Loc S_Addr=0e <- S=fffffff8
t= 276.0 ns: $r15 @Loc S_Addr=0f <- S=000075cc
 
 
***************************************************************
       F I N A L    R E G I S T E R    V A L U E S             
***************************************************************
t= 806.0 ns: $r0 @Loc S_Addr=00 <- S=00000000
t= 816.0 ns: $r1 @Loc S_Addr=01 <- S=ffffffff
t= 826.0 ns: $r2 @Loc S_Addr=02 <- S=00000007
t= 836.0 ns: $r3 @Loc S_Addr=03 <- S=2d2d2d2d
t= 846.0 ns: $r4 @Loc S_Addr=04 <- S=48d159c0
t= 856.0 ns: $r5 @Loc S_Addr=05 <- S=fffff147
t= 866.0 ns: $r6 @Loc S_Addr=06 <- S=00000004
t= 876.0 ns: $r7 @Loc S_Addr=07 <- S=ffffffc9
t= 886.0 ns: $r8 @Loc S_Addr=08 <- S=ffffffff
t= 896.0 ns: $r9 @Loc S_Addr=09 <- S=ffffffea
t= 906.0 ns: $r10 @Loc S_Addr=0a <- S=fffffff6
t= 916.0 ns: $r11 @Loc S_Addr=0b <- S=fffffff4
t= 926.0 ns: $r12 @Loc S_Addr=0c <- S=xxxxxxxx
t= 936.0 ns: $r13 @Loc S_Addr=0d <- S=0000000d
t= 946.0 ns: $r14 @Loc S_Addr=0e <- S=fffffff8
t= 956.0 ns: $r15 @Loc S_Addr=0f <- S=000075cc
 
 
**********************************************************************
           M E M O R Y   W R I T E   V A L U E S                      
**********************************************************************
t= 965.0 ns  Address=00000ff8  D_Out=xxxxxxxx
Stopped at time : 965 ns : File "C:/Users/ashis/Dropbox/Computer Engineering CSULB/CECS440/LAB 5 Ashish & J/Lab4_Integer DataPath_2/Instruction_Unit_TB.v" Line 703
